time s,power W,temperature K,air_density kg/m^3
0,1604.29,284.9,1.1673
30,1604.29,284.9,1.1673
30,4876.27,284.89,1.1672
40,4876.27,284.89,1.1672
40,4618.97,284.83,1.166
80,4618.97,284.83,1.166
80,3249.74,284.77,1.165
2080,3249.74,284.77,1.165
2080,2197.34,284.84,1.1661
2200,2197.34,284.84,1.1661
2200,4500,284.89,1.1672
2220,4500,284.89,1.1672
2220,1604.29,284.9,1.1673
2250,1604.29,284.9,1.1673
