time s,power W,cath_p Pa,ambient_pressure Pa,temp_ambient K
0,1600,101325,101325,288.15
20,1600,101325,101325,288.15
20,5200,101325,101325,288.15
80,5200,101325,101325,288.15
80,5200,101325,101325,288.15
100,2800,101325,101325,288.15
100,2800,101325,101325,288.15
1000,2800,101325,101325,288.15
1000,2000,101325,101325,288.15
1500,2000,101325,101325,288.15
1500,5200,101325,101325,288.15
1560,5200,101325,101325,288.15
1560,5200,101325,101325,288.15
2200,100,101325,101325,288.15
