time s,power W,cath_p Pa,ambient_pressure Pa,temp_ambient K
0,1600,101325,101325,288.15
20,1600,101325,101325,288.15
20,5200,101325,101325,281.65
80,5200,89874.6,89874.6,281.65
80,5200,89874.6,89874.6,281.65
100,2800,89874.6,89874.6,281.65
100,2800,89874.6,89874.6,281.65
1000,2800,89874.6,89874.6,281.65
1000,2000,89874.6,89874.6,281.65
1500,2000,89874.6,89874.6,281.65
1500,5200,89874.6,89874.6,281.65
1560,5200,89874.6,89874.6,281.65
1560,5200,89874.6,89874.6,281.65
2200,100,89874.6,89874.6,281.65
